\relax 
\@writefile{toc}{\contentsline {paragraph}{}{2}\protected@file@percent }
\@writefile{toc}{\contentsline {paragraph}{}{3}\protected@file@percent }
\citation{WorldHealthOrganisation2020}
\citation{Orl2019}
\citation{Henderson2013}
\citation{Bandelow2015}
\@writefile{toc}{\contentsline {chapter}{\numberline {1}Introduction}{6}\protected@file@percent }
\@writefile{lof}{\addvspace {10\p@ }}
\@writefile{lot}{\addvspace {10\p@ }}
\@writefile{toc}{\contentsline {paragraph}{}{6}\protected@file@percent }
\@writefile{toc}{\contentsline {paragraph}{}{6}\protected@file@percent }
\@writefile{toc}{\contentsline {paragraph}{}{6}\protected@file@percent }
\@writefile{toc}{\contentsline {paragraph}{}{7}\protected@file@percent }
\citation{Danaee2017}
\citation{Isin2016}
\citation{Ling2017}
\citation{Chunara2012}
\citation{Eichstaedt2015}
\citation{Merchant2019}
\@writefile{toc}{\contentsline {chapter}{\numberline {2}Literature Review}{8}\protected@file@percent }
\@writefile{lof}{\addvspace {10\p@ }}
\@writefile{lot}{\addvspace {10\p@ }}
\@writefile{toc}{\contentsline {section}{\numberline {2.1}Current Literature}{8}\protected@file@percent }
\@writefile{toc}{\contentsline {paragraph}{}{8}\protected@file@percent }
\@writefile{toc}{\contentsline {paragraph}{}{8}\protected@file@percent }
\citation{Shen2017}
\citation{Yates2017}
\citation{Choudhury2014}
\citation{Gui2019}
\@writefile{toc}{\contentsline {paragraph}{}{9}\protected@file@percent }
\@writefile{toc}{\contentsline {paragraph}{}{9}\protected@file@percent }
\citation{Gui2019}
\@writefile{lof}{\contentsline {figure}{\numberline {2.1}{\ignorespaces Textual and Image Content in Tweet related to Depression \cite  {Gui2019}}}{10}\protected@file@percent }
\newlabel{fig:whyeveryonesohappy}{{2.1}{10}}
\@writefile{toc}{\contentsline {section}{\numberline {2.2}Further Research Opportunities}{10}\protected@file@percent }
\@writefile{toc}{\contentsline {paragraph}{}{10}\protected@file@percent }
\@writefile{toc}{\contentsline {paragraph}{}{11}\protected@file@percent }
\@writefile{toc}{\contentsline {subsection}{\numberline {2.2.1}Detecting other types of depressive symptoms}{11}\protected@file@percent }
\@writefile{toc}{\contentsline {paragraph}{}{11}\protected@file@percent }
\@writefile{toc}{\contentsline {paragraph}{}{11}\protected@file@percent }
\citation{Konig2019}
\citation{Happy2019}
\citation{He2020}
\@writefile{toc}{\contentsline {subsubsection}{Mental Symptoms}{12}\protected@file@percent }
\@writefile{toc}{\contentsline {paragraph}{Sustained and marked diminished interest (apathy)}{12}\protected@file@percent }
\@writefile{toc}{\contentsline {subparagraph}{}{12}\protected@file@percent }
\@writefile{toc}{\contentsline {subparagraph}{}{12}\protected@file@percent }
\@writefile{toc}{\contentsline {paragraph}{Suicidal Ideation}{12}\protected@file@percent }
\@writefile{toc}{\contentsline {subparagraph}{}{12}\protected@file@percent }
\citation{Bandelow2015}
\citation{Andlin-Sobocki2005}
\citation{Shickel2019}
\citation{Miao2017}
\@writefile{toc}{\contentsline {subsubsection}{Physical symptoms}{13}\protected@file@percent }
\@writefile{toc}{\contentsline {paragraph}{Fatigue or loss of energy nearly every day}{13}\protected@file@percent }
\@writefile{toc}{\contentsline {subparagraph}{}{13}\protected@file@percent }
\@writefile{toc}{\contentsline {paragraph}{Weight loss/gain when not dieting}{13}\protected@file@percent }
\@writefile{toc}{\contentsline {subparagraph}{}{13}\protected@file@percent }
\@writefile{toc}{\contentsline {subsection}{\numberline {2.2.2}Detecting other mental illnesses}{13}\protected@file@percent }
\@writefile{toc}{\contentsline {subsubsection}{Anxiety Disorders}{13}\protected@file@percent }
\@writefile{toc}{\contentsline {paragraph}{}{13}\protected@file@percent }
\@writefile{toc}{\contentsline {paragraph}{}{13}\protected@file@percent }
\citation{Chandran2019}
\@writefile{toc}{\contentsline {paragraph}{}{14}\protected@file@percent }
\@writefile{toc}{\contentsline {subsubsection}{Other mental disorders}{14}\protected@file@percent }
\@writefile{toc}{\contentsline {paragraph}{}{14}\protected@file@percent }
\@writefile{toc}{\contentsline {chapter}{\numberline {3}Data Collection}{15}\protected@file@percent }
\@writefile{lof}{\addvspace {10\p@ }}
\@writefile{lot}{\addvspace {10\p@ }}
\@writefile{toc}{\contentsline {paragraph}{}{15}\protected@file@percent }
\@writefile{toc}{\contentsline {section}{\numberline {3.1}Reddit}{15}\protected@file@percent }
\@writefile{toc}{\contentsline {paragraph}{}{15}\protected@file@percent }
\@writefile{toc}{\contentsline {paragraph}{}{15}\protected@file@percent }
\citation{SubredditStatsAnxiety}
\citation{SubredditStatsNews}
\@writefile{toc}{\contentsline {subsection}{\numberline {3.1.1}The r/Anxiety Subreddit}{16}\protected@file@percent }
\@writefile{toc}{\contentsline {paragraph}{}{16}\protected@file@percent }
\@writefile{lof}{\contentsline {figure}{\numberline {3.1}{\ignorespaces r/Anxiety subscribers vs. Time \cite  {SubredditStatsAnxiety}}}{16}\protected@file@percent }
\newlabel{fig:anxietysubs}{{3.1}{16}}
\citation{Huang2020}
\citation{Islam2020}
\@writefile{lof}{\contentsline {figure}{\numberline {3.2}{\ignorespaces r/WorldNews subscribers vs. Time \cite  {SubredditStatsNews}}}{17}\protected@file@percent }
\newlabel{fig:worldnewssubs}{{3.2}{17}}
\@writefile{toc}{\contentsline {paragraph}{}{17}\protected@file@percent }
\@writefile{toc}{\contentsline {paragraph}{}{17}\protected@file@percent }
\citation{SubredditStatsDepression}
\@writefile{lof}{\contentsline {figure}{\numberline {3.3}{\ignorespaces Comments/day in r/Anxiety}}{18}\protected@file@percent }
\newlabel{fig:commentsperdayanxiety}{{3.3}{18}}
\@writefile{toc}{\contentsline {subsection}{\numberline {3.1.2}The r/depression Subreddit}{18}\protected@file@percent }
\@writefile{toc}{\contentsline {paragraph}{}{18}\protected@file@percent }
\@writefile{toc}{\contentsline {subsection}{\numberline {3.1.3}Collecting Data from Reddit}{18}\protected@file@percent }
\@writefile{toc}{\contentsline {subsubsection}{Reddit API}{18}\protected@file@percent }
\@writefile{toc}{\contentsline {paragraph}{}{18}\protected@file@percent }
\@writefile{lof}{\contentsline {figure}{\numberline {3.4}{\ignorespaces r/WorldNews subscribers vs. Time \cite  {SubredditStatsDepression}}}{19}\protected@file@percent }
\newlabel{fig:depressionsubs}{{3.4}{19}}
\@writefile{toc}{\contentsline {subsubsection}{PRAW}{19}\protected@file@percent }
\@writefile{toc}{\contentsline {paragraph}{}{19}\protected@file@percent }
\newlabel{lst:prawconnect}{{3.1}{19}}
\@writefile{lol}{\contentsline {lstlisting}{\numberline {3.1}Basic PRAW Commands}{19}\protected@file@percent }
\newlabel{lst:postiteration}{{3.2}{20}}
\@writefile{lol}{\contentsline {lstlisting}{\numberline {3.2}Iterating over Reddit Posts and Comments}{20}\protected@file@percent }
\@writefile{toc}{\contentsline {paragraph}{}{20}\protected@file@percent }
\@writefile{lof}{\contentsline {figure}{\numberline {3.5}{\ignorespaces Annotated Reddit Submission posted in r/depression}}{21}\protected@file@percent }
\newlabel{fig:annotatedredditpage}{{3.5}{21}}
\@writefile{toc}{\contentsline {subsubsection}{The Pushshift API}{21}\protected@file@percent }
\@writefile{toc}{\contentsline {paragraph}{}{21}\protected@file@percent }
\@writefile{toc}{\contentsline {paragraph}{}{22}\protected@file@percent }
\@writefile{toc}{\contentsline {paragraph}{}{22}\protected@file@percent }
\@writefile{toc}{\contentsline {section}{\numberline {3.2}Building Datasets}{22}\protected@file@percent }
\@writefile{toc}{\contentsline {subsection}{\numberline {3.2.1}Dataset Format}{22}\protected@file@percent }
\@writefile{toc}{\contentsline {paragraph}{}{22}\protected@file@percent }
\@writefile{toc}{\contentsline {paragraph}{}{23}\protected@file@percent }
\newlabel{lst:submissionexample}{{3.3}{23}}
\@writefile{lol}{\contentsline {lstlisting}{\numberline {3.3}Example of a submission instance in the ARD}{23}\protected@file@percent }
\@writefile{toc}{\contentsline {paragraph}{}{24}\protected@file@percent }
\@writefile{toc}{\contentsline {subsection}{\numberline {3.2.2}The Anxiety and Depression Reddit Datasets}{24}\protected@file@percent }
\@writefile{toc}{\contentsline {subsubsection}{Data Collection}{24}\protected@file@percent }
\@writefile{toc}{\contentsline {paragraph}{}{24}\protected@file@percent }
\@writefile{toc}{\contentsline {paragraph}{}{24}\protected@file@percent }
\@writefile{toc}{\contentsline {paragraph}{}{25}\protected@file@percent }
\@writefile{toc}{\contentsline {subsubsection}{Dataset Cleaning}{25}\protected@file@percent }
\@writefile{toc}{\contentsline {paragraph}{}{25}\protected@file@percent }
\@writefile{toc}{\contentsline {paragraph}{Step 1: Removing drug-related submissions}{25}\protected@file@percent }
\@writefile{toc}{\contentsline {subparagraph}{}{25}\protected@file@percent }
\@writefile{toc}{\contentsline {subparagraph}{}{26}\protected@file@percent }
\@writefile{toc}{\contentsline {paragraph}{Step 2: Splitting paragraphs within submissions}{26}\protected@file@percent }
\@writefile{toc}{\contentsline {subparagraph}{}{26}\protected@file@percent }
\@writefile{toc}{\contentsline {subparagraph}{}{26}\protected@file@percent }
\@writefile{toc}{\contentsline {paragraph}{Step 3: Dealing with URLs inside the text content}{27}\protected@file@percent }
\@writefile{toc}{\contentsline {subparagraph}{}{27}\protected@file@percent }
\@writefile{toc}{\contentsline {subparagraph}{}{27}\protected@file@percent }
\@writefile{toc}{\contentsline {paragraph}{Step 4: Dealing with other issues}{27}\protected@file@percent }
\@writefile{toc}{\contentsline {subparagraph}{}{27}\protected@file@percent }
\@writefile{toc}{\contentsline {subsection}{\numberline {3.2.3}The Control Reddit Dataset}{28}\protected@file@percent }
\@writefile{toc}{\contentsline {paragraph}{}{28}\protected@file@percent }
\@writefile{toc}{\contentsline {paragraph}{}{28}\protected@file@percent }
\@writefile{toc}{\contentsline {paragraph}{}{28}\protected@file@percent }
\@writefile{toc}{\contentsline {paragraph}{}{29}\protected@file@percent }
\@writefile{toc}{\contentsline {paragraph}{}{29}\protected@file@percent }
\newlabel{lst:CRDinstance}{{3.4}{29}}
\@writefile{lol}{\contentsline {lstlisting}{\numberline {3.4}Example of a comment instance in the CRD}{29}\protected@file@percent }
\@writefile{toc}{\contentsline {subsection}{\numberline {3.2.4}Ethical Considerations}{30}\protected@file@percent }
\@writefile{toc}{\contentsline {paragraph}{}{30}\protected@file@percent }
\@writefile{toc}{\contentsline {chapter}{\numberline {4}Analysis}{31}\protected@file@percent }
\@writefile{lof}{\addvspace {10\p@ }}
\@writefile{lot}{\addvspace {10\p@ }}
\@writefile{toc}{\contentsline {paragraph}{}{31}\protected@file@percent }
\@writefile{toc}{\contentsline {section}{\numberline {4.1}Text Preprocessing}{31}\protected@file@percent }
\@writefile{lof}{\contentsline {figure}{\numberline {4.1}{\ignorespaces Text Preprocessing Diagram}}{31}\protected@file@percent }
\newlabel{fig:preprocessing}{{4.1}{31}}
\@writefile{toc}{\contentsline {paragraph}{}{32}\protected@file@percent }
\@writefile{toc}{\contentsline {paragraph}{}{32}\protected@file@percent }
\@writefile{toc}{\contentsline {paragraph}{}{32}\protected@file@percent }
\@writefile{toc}{\contentsline {paragraph}{}{32}\protected@file@percent }
\citation{Gui2019}
\@writefile{toc}{\contentsline {paragraph}{}{33}\protected@file@percent }
\@writefile{toc}{\contentsline {section}{\numberline {4.2}Exploratory Analysis}{33}\protected@file@percent }
\@writefile{toc}{\contentsline {subsection}{\numberline {4.2.1}Dataset Description}{33}\protected@file@percent }
\@writefile{toc}{\contentsline {paragraph}{}{33}\protected@file@percent }
\@writefile{lof}{\contentsline {figure}{\numberline {4.2}{\ignorespaces Box Plot for Datasets Text Length}}{34}\protected@file@percent }
\newlabel{fig:lengthboxplot}{{4.2}{34}}
\@writefile{toc}{\contentsline {paragraph}{}{34}\protected@file@percent }
\@writefile{toc}{\contentsline {paragraph}{}{34}\protected@file@percent }
\@writefile{toc}{\contentsline {subsection}{\numberline {4.2.2}Semantic Analysis}{35}\protected@file@percent }
\@writefile{toc}{\contentsline {paragraph}{}{35}\protected@file@percent }
\@writefile{toc}{\contentsline {subsubsection}{Individual Word Frequency Analysis}{35}\protected@file@percent }
\@writefile{toc}{\contentsline {paragraph}{}{35}\protected@file@percent }
\@writefile{lof}{\contentsline {figure}{\numberline {4.3}{\ignorespaces Control Reddit Dataset Wordcloud}}{35}\protected@file@percent }
\newlabel{fig:controlwordcloud}{{4.3}{35}}
\@writefile{toc}{\contentsline {paragraph}{}{35}\protected@file@percent }
\@writefile{lof}{\contentsline {figure}{\numberline {4.4}{\ignorespaces Anxiety Reddit Dataset Wordcloud}}{36}\protected@file@percent }
\newlabel{fig:anxietywordcloud}{{4.4}{36}}
\@writefile{toc}{\contentsline {paragraph}{}{36}\protected@file@percent }
\@writefile{lof}{\contentsline {figure}{\numberline {4.5}{\ignorespaces Depression Reddit Dataset Wordcloud}}{37}\protected@file@percent }
\newlabel{fig:depressionwordcloud}{{4.5}{37}}
\@writefile{toc}{\contentsline {paragraph}{}{37}\protected@file@percent }
\@writefile{toc}{\contentsline {paragraph}{}{37}\protected@file@percent }
\citation{Cox2018}
\citation{Radovic2015}
\@writefile{lof}{\contentsline {figure}{\numberline {4.6}{\ignorespaces Venn Diagram of Frequent Words for ARD and DRD}}{38}\protected@file@percent }
\newlabel{fig:venn}{{4.6}{38}}
\@writefile{toc}{\contentsline {paragraph}{}{38}\protected@file@percent }
\@writefile{toc}{\contentsline {paragraph}{}{39}\protected@file@percent }
\@writefile{toc}{\contentsline {paragraph}{}{39}\protected@file@percent }
\@writefile{lof}{\contentsline {figure}{\numberline {4.7}{\ignorespaces Common Words in ARD and DRD, excluding CRD}}{39}\protected@file@percent }
\newlabel{fig:overlapanxietydepression}{{4.7}{39}}
\citation{Mioni2016}
\citation{Plante2018}
\@writefile{toc}{\contentsline {subsubsection}{N-Gram Analysis}{40}\protected@file@percent }
\@writefile{toc}{\contentsline {paragraph}{}{40}\protected@file@percent }
\@writefile{toc}{\contentsline {paragraph}{}{40}\protected@file@percent }
\@writefile{toc}{\contentsline {paragraph}{}{40}\protected@file@percent }
\@writefile{lof}{\contentsline {figure}{\numberline {4.8}{\ignorespaces Count Frequency of Bigrams in ARD}}{41}\protected@file@percent }
\newlabel{fig:anxietybigram}{{4.8}{41}}
\@writefile{lof}{\contentsline {figure}{\numberline {4.9}{\ignorespaces Count Frequency of Trigrams in ARD}}{42}\protected@file@percent }
\newlabel{fig:anxietytrigram}{{4.9}{42}}
\@writefile{toc}{\contentsline {paragraph}{}{42}\protected@file@percent }
\@writefile{lof}{\contentsline {figure}{\numberline {4.10}{\ignorespaces Count Frequency of Bigrams in DRD}}{43}\protected@file@percent }
\newlabel{fig:depressionbigram}{{4.10}{43}}
\@writefile{toc}{\contentsline {subsection}{\numberline {4.2.3}Sentiment Analysis}{43}\protected@file@percent }
\@writefile{toc}{\contentsline {paragraph}{}{43}\protected@file@percent }
\@writefile{toc}{\contentsline {subsubsection}{Sentiment Analysis Models}{44}\protected@file@percent }
\@writefile{toc}{\contentsline {paragraph}{VADER}{44}\protected@file@percent }
\@writefile{toc}{\contentsline {subparagraph}{}{44}\protected@file@percent }
\@writefile{toc}{\contentsline {paragraph}{Flair}{44}\protected@file@percent }
\@writefile{toc}{\contentsline {subparagraph}{}{44}\protected@file@percent }
\@writefile{toc}{\contentsline {subsubsection}{Sentiment Score Distribution}{44}\protected@file@percent }
\@writefile{toc}{\contentsline {paragraph}{}{44}\protected@file@percent }
\@writefile{toc}{\contentsline {paragraph}{}{44}\protected@file@percent }
\@writefile{lof}{\contentsline {figure}{\numberline {4.11}{\ignorespaces Histogram of VADER Compound Score for ARD vs DRD}}{45}\protected@file@percent }
\newlabel{fig:histanxietydepression}{{4.11}{45}}
\@writefile{toc}{\contentsline {paragraph}{}{45}\protected@file@percent }
\@writefile{lof}{\contentsline {figure}{\numberline {4.12}{\ignorespaces Histogram of VADER Compound Score for ARD vs DRD vs CRD}}{46}\protected@file@percent }
\newlabel{fig:histcontrol}{{4.12}{46}}
\@writefile{lof}{\contentsline {figure}{\numberline {4.13}{\ignorespaces Box Plot of VADER Compound Score for ARD vs DRD vs CRD}}{47}\protected@file@percent }
\newlabel{fig:boxplotsentiment}{{4.13}{47}}
\@writefile{toc}{\contentsline {section}{\numberline {4.3}Text Classification Models}{47}\protected@file@percent }
\@writefile{toc}{\contentsline {paragraph}{}{47}\protected@file@percent }
\@writefile{toc}{\contentsline {paragraph}{}{47}\protected@file@percent }
\@writefile{toc}{\contentsline {paragraph}{Data Loading}{48}\protected@file@percent }
\@writefile{toc}{\contentsline {subparagraph}{}{48}\protected@file@percent }
\@writefile{toc}{\contentsline {subsection}{\numberline {4.3.1}Chosen Performance Metrics}{48}\protected@file@percent }
\@writefile{toc}{\contentsline {paragraph}{}{48}\protected@file@percent }
\@writefile{toc}{\contentsline {subsubsection}{Confusion Matrix}{48}\protected@file@percent }
\@writefile{toc}{\contentsline {paragraph}{}{48}\protected@file@percent }
\@writefile{toc}{\contentsline {paragraph}{}{48}\protected@file@percent }
\@writefile{lof}{\contentsline {figure}{\numberline {4.14}{\ignorespaces Confusion Matrix Example}}{49}\protected@file@percent }
\newlabel{fig:examplecm}{{4.14}{49}}
\@writefile{toc}{\contentsline {subsubsection}{Accuracy, Recall and $F_1$ score}{49}\protected@file@percent }
\@writefile{toc}{\contentsline {paragraph}{}{49}\protected@file@percent }
\@writefile{toc}{\contentsline {paragraph}{}{49}\protected@file@percent }
\@writefile{toc}{\contentsline {paragraph}{}{50}\protected@file@percent }
\@writefile{toc}{\contentsline {paragraph}{}{50}\protected@file@percent }
\@writefile{toc}{\contentsline {subsection}{\numberline {4.3.2}Sentiment-Only Models}{50}\protected@file@percent }
\@writefile{toc}{\contentsline {paragraph}{}{50}\protected@file@percent }
\@writefile{toc}{\contentsline {paragraph}{}{50}\protected@file@percent }
\@writefile{toc}{\contentsline {paragraph}{}{51}\protected@file@percent }
\@writefile{lof}{\contentsline {figure}{\numberline {4.15}{\ignorespaces Confusion Matrix for Sentiment-Only Model (non-Distinguished)}}{51}\protected@file@percent }
\newlabel{fig:cmsentimentonlynondistinguished}{{4.15}{51}}
\@writefile{lot}{\contentsline {table}{\numberline {4.1}{\ignorespaces Classification Report for Sentiment-Only Model (non-Distinguished)}}{52}\protected@file@percent }
\newlabel{crsentimentonlynondistinguished}{{4.1}{52}}
\@writefile{toc}{\contentsline {paragraph}{}{52}\protected@file@percent }
\@writefile{lof}{\contentsline {figure}{\numberline {4.16}{\ignorespaces Confusion Matrix for Sentiment-Only Model (Distinguished)}}{53}\protected@file@percent }
\newlabel{fig:cmsentimentonlydistinguished}{{4.16}{53}}
\@writefile{lot}{\contentsline {table}{\numberline {4.2}{\ignorespaces Classification Report for Sentiment-Only Model (Distinguished)}}{53}\protected@file@percent }
\newlabel{crsentimentonlydistinguished}{{4.2}{53}}
\@writefile{toc}{\contentsline {subsection}{\numberline {4.3.3}Vectoriser-Classifier Models}{54}\protected@file@percent }
\@writefile{toc}{\contentsline {paragraph}{}{54}\protected@file@percent }
\@writefile{toc}{\contentsline {subsubsection}{Count Vectorizer with Support Vector Machine}{54}\protected@file@percent }
\@writefile{toc}{\contentsline {paragraph}{}{54}\protected@file@percent }
\@writefile{toc}{\contentsline {paragraph}{}{54}\protected@file@percent }
\citation{SupportVector}
\@writefile{lot}{\contentsline {table}{\numberline {4.3}{\ignorespaces Example of a Count Vectorizer Transformation into a Sparse Matrix}}{55}\protected@file@percent }
\newlabel{countvec}{{4.3}{55}}
\@writefile{toc}{\contentsline {paragraph}{}{55}\protected@file@percent }
\@writefile{toc}{\contentsline {paragraph}{}{55}\protected@file@percent }
\@writefile{lof}{\contentsline {figure}{\numberline {4.17}{\ignorespaces Support Vector Machine Margin Maximisation \cite  {SupportVector}}}{56}\protected@file@percent }
\newlabel{fig:svm}{{4.17}{56}}
\@writefile{toc}{\contentsline {paragraph}{}{56}\protected@file@percent }
\@writefile{lot}{\contentsline {table}{\numberline {4.4}{\ignorespaces Classification Report for Count Vectorizer (unigram) with SVM (non-Distinguished)}}{56}\protected@file@percent }
\newlabel{crcountvecsvmnondistinguished}{{4.4}{56}}
\@writefile{toc}{\contentsline {paragraph}{}{56}\protected@file@percent }
\@writefile{toc}{\contentsline {paragraph}{}{57}\protected@file@percent }
\@writefile{lot}{\contentsline {table}{\numberline {4.5}{\ignorespaces Classification Report for Count Vectorizer (unigram) with SVM (Distinguished)}}{57}\protected@file@percent }
\newlabel{crcountvecsvmdistinguished}{{4.5}{57}}
\@writefile{lof}{\contentsline {figure}{\numberline {4.18}{\ignorespaces Confusion Matrix for Count Vectorizer (unigram) with SVM (Distinguished)}}{58}\protected@file@percent }
\newlabel{fig:cmcountvecsvmdistinguished}{{4.18}{58}}
\@writefile{toc}{\contentsline {subsubsection}{Tfidf Vectorizer with Support Vector Machine}{58}\protected@file@percent }
\@writefile{toc}{\contentsline {paragraph}{}{58}\protected@file@percent }
\@writefile{toc}{\contentsline {paragraph}{}{58}\protected@file@percent }
\@writefile{toc}{\contentsline {paragraph}{}{59}\protected@file@percent }
\@writefile{lot}{\contentsline {table}{\numberline {4.6}{\ignorespaces Classification Report for Tfidf Vectorizer (unigram) with SVM (non-Distinguished)}}{59}\protected@file@percent }
\newlabel{crtfidfsvmnondistinguished}{{4.6}{59}}
\@writefile{toc}{\contentsline {paragraph}{}{59}\protected@file@percent }
\@writefile{lot}{\contentsline {table}{\numberline {4.7}{\ignorespaces Classification Report for Tfidf Vectorizer (unigram) with SVM (Distinguished)}}{60}\protected@file@percent }
\newlabel{crctfidfsvmdistinguished}{{4.7}{60}}
\@writefile{lof}{\contentsline {figure}{\numberline {4.19}{\ignorespaces Confusion Matrix for Tfidf Vectorizer (unigram) with SVM (Distinguished)}}{60}\protected@file@percent }
\newlabel{fig:cmtfidfsvmdistinguished}{{4.19}{60}}
\citation{Pedregosa2011}
\@writefile{toc}{\contentsline {subsubsection}{Hyperparameter Tuning and Grid Search}{61}\protected@file@percent }
\@writefile{toc}{\contentsline {paragraph}{}{61}\protected@file@percent }
\@writefile{toc}{\contentsline {paragraph}{}{61}\protected@file@percent }
\@writefile{lot}{\contentsline {table}{\numberline {4.8}{\ignorespaces Classification Report for Tfidf Vectorizer (unigram) with SVM after Hyperparameter Tuning (non-Distinguished)}}{62}\protected@file@percent }
\newlabel{crtfidfsvmnondistinguishedtuned}{{4.8}{62}}
\@writefile{lot}{\contentsline {table}{\numberline {4.9}{\ignorespaces Classification Report for Tfidf Vectorizer (unigram) with SVM after Hyperparameter Tuning (Distinguished)}}{62}\protected@file@percent }
\newlabel{crctfidfsvmdistinguishedtuned}{{4.9}{62}}
\@writefile{lof}{\contentsline {figure}{\numberline {4.20}{\ignorespaces Confusion Matrix for Tfidf Vectorizer (unigram) with SVM after Hyperparameter Tuning (Distinguished)}}{63}\protected@file@percent }
\newlabel{fig:cmtfidftuned}{{4.20}{63}}
\@writefile{toc}{\contentsline {paragraph}{}{63}\protected@file@percent }
\@writefile{toc}{\contentsline {subsubsection}{Hierarchical Models}{63}\protected@file@percent }
\@writefile{toc}{\contentsline {paragraph}{}{63}\protected@file@percent }
\@writefile{lof}{\contentsline {figure}{\numberline {4.21}{\ignorespaces Hierarchical Model using two Support Vector Machines}}{64}\protected@file@percent }
\newlabel{fig:hierarchical}{{4.21}{64}}
\@writefile{toc}{\contentsline {paragraph}{}{64}\protected@file@percent }
\citation{Word2Vec}
\@writefile{lot}{\contentsline {table}{\numberline {4.10}{\ignorespaces Classification Report for Multi-SVM Hierarchical Model}}{65}\protected@file@percent }
\newlabel{crhierarchical}{{4.10}{65}}
\@writefile{toc}{\contentsline {paragraph}{}{65}\protected@file@percent }
\@writefile{toc}{\contentsline {subsection}{\numberline {4.3.4}Word Embeddings Models}{65}\protected@file@percent }
\@writefile{toc}{\contentsline {paragraph}{}{65}\protected@file@percent }
\citation{GoogleNews}
\@writefile{lof}{\contentsline {figure}{\numberline {4.22}{\ignorespaces Highlighting Word Similarities using Embeddings \cite  {Word2Vec}}}{66}\protected@file@percent }
\newlabel{fig:embeddings}{{4.22}{66}}
\@writefile{toc}{\contentsline {paragraph}{}{66}\protected@file@percent }
\@writefile{toc}{\contentsline {paragraph}{}{66}\protected@file@percent }
\@writefile{lot}{\contentsline {table}{\numberline {4.11}{\ignorespaces Classification Report for Word Embeddings with SVM (non-Distinguished)}}{67}\protected@file@percent }
\newlabel{crwordembeddingsnondistinguished}{{4.11}{67}}
\@writefile{lot}{\contentsline {table}{\numberline {4.12}{\ignorespaces Classification Report for Word Embeddings with SVM (Distinguished)}}{67}\protected@file@percent }
\newlabel{crwordembeddingsdistinguished}{{4.12}{67}}
\@writefile{lof}{\contentsline {figure}{\numberline {4.23}{\ignorespaces Confusion Matrix for Word Embeddings with SVM (Distinguished)}}{68}\protected@file@percent }
\newlabel{fig:cmwordembeddings}{{4.23}{68}}
\@writefile{toc}{\contentsline {paragraph}{}{68}\protected@file@percent }
\@writefile{toc}{\contentsline {paragraph}{}{68}\protected@file@percent }
\@writefile{toc}{\contentsline {paragraph}{}{68}\protected@file@percent }
\citation{Devlin2019}
\citation{Hochreiter1997}
\@writefile{toc}{\contentsline {subsection}{\numberline {4.3.5}Deep Learning Models}{69}\protected@file@percent }
\@writefile{toc}{\contentsline {paragraph}{}{69}\protected@file@percent }
\@writefile{toc}{\contentsline {subsubsection}{LSTM Models}{69}\protected@file@percent }
\@writefile{toc}{\contentsline {paragraph}{}{69}\protected@file@percent }
\@writefile{toc}{\contentsline {subsubsection}{Text Preprocessing}{70}\protected@file@percent }
\@writefile{toc}{\contentsline {paragraph}{}{70}\protected@file@percent }
\@writefile{toc}{\contentsline {paragraph}{}{70}\protected@file@percent }
\@writefile{toc}{\contentsline {paragraph}{}{70}\protected@file@percent }
\@writefile{toc}{\contentsline {subsubsection}{Network Architecture}{71}\protected@file@percent }
\@writefile{toc}{\contentsline {paragraph}{}{71}\protected@file@percent }
\@writefile{toc}{\contentsline {paragraph}{}{71}\protected@file@percent }
\@writefile{lof}{\contentsline {figure}{\numberline {4.24}{\ignorespaces LSTM Network Architecture}}{72}\protected@file@percent }
\newlabel{fig:lstmnetwork}{{4.24}{72}}
\@writefile{toc}{\contentsline {subsubsection}{Training and Final Results}{72}\protected@file@percent }
\@writefile{toc}{\contentsline {paragraph}{}{72}\protected@file@percent }
\@writefile{toc}{\contentsline {paragraph}{}{73}\protected@file@percent }
\@writefile{lof}{\contentsline {figure}{\numberline {4.25}{\ignorespaces First LSTM Model Accuracy over Number of Epochs}}{73}\protected@file@percent }
\newlabel{fig:firstmodeltraining}{{4.25}{73}}
\@writefile{lot}{\contentsline {table}{\numberline {4.13}{\ignorespaces Classification Report for First LSTM Model}}{74}\protected@file@percent }
\newlabel{crfirstlstm}{{4.13}{74}}
\@writefile{toc}{\contentsline {paragraph}{}{74}\protected@file@percent }
\@writefile{lof}{\contentsline {figure}{\numberline {4.26}{\ignorespaces Hyperparameter-tuned LSTM Model Accuracy over Number of Epochs}}{75}\protected@file@percent }
\newlabel{fig:traininglstm}{{4.26}{75}}
\@writefile{lot}{\contentsline {table}{\numberline {4.14}{\ignorespaces Classification Report for Hyperparameter-tuned LSTM Model}}{75}\protected@file@percent }
\newlabel{crlstmtuned}{{4.14}{75}}
\@writefile{toc}{\contentsline {paragraph}{}{75}\protected@file@percent }
\@writefile{toc}{\contentsline {chapter}{\numberline {5}Conclusions}{77}\protected@file@percent }
\@writefile{lof}{\addvspace {10\p@ }}
\@writefile{lot}{\addvspace {10\p@ }}
\@writefile{toc}{\contentsline {section}{\numberline {5.1}Results Summary and Discussion}{77}\protected@file@percent }
\@writefile{lot}{\contentsline {table}{\numberline {5.1}{\ignorespaces Model Accuracy Summary}}{77}\protected@file@percent }
\newlabel{tab:summary}{{5.1}{77}}
\@writefile{toc}{\contentsline {paragraph}{}{77}\protected@file@percent }
\citation{Aina2006}
\citation{ABDULKADIR}
\@writefile{toc}{\contentsline {paragraph}{}{78}\protected@file@percent }
\@writefile{toc}{\contentsline {section}{\numberline {5.2}Areas of Future Development}{78}\protected@file@percent }
\@writefile{toc}{\contentsline {paragraph}{More Sophisticated Deep Learning Models}{78}\protected@file@percent }
\@writefile{toc}{\contentsline {subparagraph}{}{78}\protected@file@percent }
\bibdata{Mindometrics}
\@writefile{toc}{\contentsline {paragraph}{Generalisation to Other Social Media}{79}\protected@file@percent }
\@writefile{toc}{\contentsline {subparagraph}{}{79}\protected@file@percent }
\@writefile{toc}{\contentsline {paragraph}{Model Application for Mood Detection}{79}\protected@file@percent }
\@writefile{toc}{\contentsline {subparagraph}{}{79}\protected@file@percent }
\@writefile{toc}{\contentsline {paragraph}{}{79}\protected@file@percent }
\bibcite{WorldHealthOrganisation2020}{1}
\bibcite{Orl2019}{2}
\bibcite{Henderson2013}{3}
\bibcite{Bandelow2015}{4}
\bibcite{Danaee2017}{5}
\bibcite{Isin2016}{6}
\bibcite{Ling2017}{7}
\bibcite{Chunara2012}{8}
\bibcite{Eichstaedt2015}{9}
\bibcite{Merchant2019}{10}
\bibcite{Shen2017}{11}
\bibcite{Yates2017}{12}
\bibcite{Choudhury2014}{13}
\bibcite{Gui2019}{14}
\bibcite{Konig2019}{15}
\bibcite{Happy2019}{16}
\bibcite{He2020}{17}
\bibcite{Andlin-Sobocki2005}{18}
\bibcite{Shickel2019}{19}
\bibcite{Miao2017}{20}
\bibcite{Chandran2019}{21}
\bibcite{SubredditStatsAnxiety}{22}
\bibcite{SubredditStatsNews}{23}
\bibcite{Huang2020}{24}
\bibcite{Islam2020}{25}
\bibcite{SubredditStatsDepression}{26}
\bibcite{Cox2018}{27}
\bibcite{Radovic2015}{28}
\bibcite{Mioni2016}{29}
\bibcite{Plante2018}{30}
\bibcite{SupportVector}{31}
\bibcite{Pedregosa2011}{32}
\bibcite{Word2Vec}{33}
\bibcite{GoogleNews}{34}
\bibcite{Devlin2019}{35}
\bibcite{Hochreiter1997}{36}
\bibcite{Aina2006}{37}
\bibcite{ABDULKADIR}{38}
\bibstyle{ieeetr}
