\relax 
\@writefile{toc}{\contentsline {section}{\numberline {1}Introduction}{1}\protected@file@percent }
\@writefile{toc}{\contentsline {paragraph}{}{1}\protected@file@percent }
\@writefile{toc}{\contentsline {paragraph}{}{1}\protected@file@percent }
\@writefile{toc}{\contentsline {section}{\numberline {2}Literature Review}{1}\protected@file@percent }
\@writefile{toc}{\contentsline {paragraph}{}{1}\protected@file@percent }
\@writefile{toc}{\contentsline {paragraph}{}{1}\protected@file@percent }
\@writefile{toc}{\contentsline {paragraph}{}{2}\protected@file@percent }
\@writefile{toc}{\contentsline {section}{\numberline {3}Further Research Rationale}{2}\protected@file@percent }
\@writefile{toc}{\contentsline {paragraph}{}{2}\protected@file@percent }
\@writefile{toc}{\contentsline {paragraph}{}{2}\protected@file@percent }
\@writefile{toc}{\contentsline {subsection}{\numberline {3.1}Mental Symptoms}{3}\protected@file@percent }
\@writefile{toc}{\contentsline {subsubsection}{\numberline {3.1.1}Depressed mood most of the day}{3}\protected@file@percent }
\@writefile{toc}{\contentsline {paragraph}{}{3}\protected@file@percent }
\@writefile{toc}{\contentsline {paragraph}{}{3}\protected@file@percent }
\@writefile{toc}{\contentsline {paragraph}{}{3}\protected@file@percent }
\@writefile{toc}{\contentsline {subsubsection}{\numberline {3.1.2}Sustained and marked diminished interest (apathy)}{3}\protected@file@percent }
\@writefile{toc}{\contentsline {paragraph}{}{3}\protected@file@percent }
\@writefile{toc}{\contentsline {paragraph}{}{3}\protected@file@percent }
\@writefile{toc}{\contentsline {subsubsection}{\numberline {3.1.3}Suicidal Ideation}{4}\protected@file@percent }
\@writefile{toc}{\contentsline {paragraph}{}{4}\protected@file@percent }
\@writefile{toc}{\contentsline {subsection}{\numberline {3.2}Physical symptoms}{4}\protected@file@percent }
\@writefile{toc}{\contentsline {subsubsection}{\numberline {3.2.1}Fatigue or loss of energy nearly every day}{4}\protected@file@percent }
\@writefile{toc}{\contentsline {paragraph}{}{4}\protected@file@percent }
\@writefile{toc}{\contentsline {subsubsection}{\numberline {3.2.2}Significant weight loss/gain when not on dieting}{4}\protected@file@percent }
\@writefile{toc}{\contentsline {paragraph}{}{4}\protected@file@percent }
\@writefile{toc}{\contentsline {section}{\numberline {4}Project Direction}{5}\protected@file@percent }
\@writefile{toc}{\contentsline {subsection}{\numberline {4.1}Project Scope}{5}\protected@file@percent }
\@writefile{toc}{\contentsline {paragraph}{}{5}\protected@file@percent }
\@writefile{toc}{\contentsline {paragraph}{}{5}\protected@file@percent }
\@writefile{toc}{\contentsline {subsection}{\numberline {4.2}Project Timeline}{6}\protected@file@percent }
\@writefile{toc}{\contentsline {paragraph}{}{6}\protected@file@percent }
\@writefile{lot}{\contentsline {table}{\numberline {1}{\ignorespaces Project Timeline\relax }}{6}\protected@file@percent }
